[
    {
        "date": "10/18/2021",
        "reviewer": "BT",
        "comment": "I love my orange and black nail polish!  It's going to be perfect for Halloween!"
    },
    {
        "date": "2/14/2022",
        "reviewer": "Christina S.",
        "comment": "My massage today was the perfect gift from my fiancee."
    },
    {
        "date": "5/1/2022",
        "reviewer": "Natalie Plyers",
        "comment": "I always feel so rejuvenated after their facials!"
    },
    {
        "date": "8/12/2022",
        "reviewer": "Betty W.",
        "comment": "I love this place!"
    },
    {
        "date": "3/8/2023",
        "reviewer": "Chuck",
        "comment": "Great!!!!"
    },
    {
        "date": "3/8/2023",
        "reviewer": "Chuck",
        "comment": "Great!!!!"
    },
    {
        "date": "3/8/2023",
        "reviewer": "Chuck",
        "comment": "Great!!!!"
    },
    {
        "date": "3/8/2023",
        "reviewer": "Chuck",
        "comment": "Great!!!!"
    }
]